{
    "servers": [
        {
            "type": "http",
            "direction": "from",
            "url": "www.yahoo.com",
            "action_type": "get",
            "wait_time": 3
        },
        {
            "type": "http",
            "direction": "to",
            "url": "https://api.github.com",
            "action_type": "post",
            "params": ""
        }
    ],
    "Logger":{
        "max-size-for-log-folder-in-mb":"10",
        "folder_path":"c:\\Python\\AsssignmentOne\\Scripts\\logs",
        "file_name":"monitor_log",
        "fields_to_Log":[]
    }
}